{
    "data": [
        {
            "id": 23,
            "user_id": 1,
            "title": "New Task 2 Main Due",
            "description": "This is the description 2 Due",
            "due": "2020-02-09 00:00:00",
            "created_at": "2020-02-07 16:23:00",
            "updated_at": "2020-02-07 16:23:00",
            "creator": {
                "id": 1,
                "name": "User 1",
                "email": "user1@email.com",
                "email_verified_at": "2020-02-18 00:00:00",
                "created_at": "2020-02-07 13:07:20",
                "updated_at": "2020-02-07 13:07:20"
            }
        },
        {
            "id": 22,
            "user_id": 1,
            "title": "New Task 2 Due",
            "description": "This is the description 2 Due",
            "due": null,
            "created_at": "2020-02-07 16:21:18",
            "updated_at": "2020-02-07 16:21:18",
            "creator": {
                "id": 1,
                "name": "User 1",
                "email": "user1@email.com",
                "email_verified_at": "2020-02-18 00:00:00",
                "created_at": "2020-02-07 13:07:20",
                "updated_at": "2020-02-07 13:07:20"
            }
        }
    ],
    "links": {
        "first": "http://127.0.0.1:8000/api/tasks?page=1",
        "last": "http://127.0.0.1:8000/api/tasks?page=11",
        "prev": null,
        "next": "http://127.0.0.1:8000/api/tasks?page=2"
    },
    "meta": {
        "current_page": 1,
        "from": 1,
        "last_page": 11,
        "path": "http://127.0.0.1:8000/api/tasks",
        "per_page": 2,
        "to": 2,
        "total": 22
    }
}
